0.8,0,0,e.02849.jpg,Collection Egypt,E.02849,Stamp seal,Button seal decorated with lions,Egyptian,-2181 / -2055,
0.8,0,0,e.03020.jpg,Collection Egypt,E.03020,Stamp seal,Button seal with lion-shaped handle,Egyptian,-2181 / -2160,
1,0.8,0.4,e.04405c.jpg,Collection Egypt,E.04405c,Stamp seal,Scarab with Hathor-head,Egyptian,-1640 / -1500,
1.2,0.9,0.7,e.06624.jpg,Collection Egypt,E.06624,Stamp seal,Scarab with Hathor head (sistrum),Egyptian,-1550 / -1295,
1.2,1,0.5,e.07345.jpg,Collection Egypt,E.07345,Stamp seal,Seal-amulet in the shape of an ox head,Egyptian,-1186 / -945,
1.3,0.9,0.6,e.06235.jpg,Collection Egypt,E.06235,Stamp seal,Scarab with Hathor head (sistrum),Egyptian,-1550 / -1295,
1.3,1.1,0,o.01582.jpg,Collection Near East,O.01582,Cylinder seal,Cylinder seal with head and quadruped,Akkadian,-2350 / -2154,
1.4,0,0,o.00494.jpg,Collection Near East,O.00494,Cylinder seal,Cylinder seal with bird and two quadrupeds,Hittite,-1450 / -1190,
1.4,0.9,0.6,e.05590e.jpg,Collection Egypt,E.05590e,Stamp seal,Scarab with Thoth,Egyptian,-664 / -343 (uncertain),
1.4,1.1,0,ir.0385.jpg,Collection Iran,IR.0385,Stamp seal,Stamp seal with lion and bull,Iranian,unknown,
1.4,1.1,0,o.01738.jpg,Collection Near East,O.01738,Stamp seal,Seal with head,Sasanian,224 / 642,
1.4,1.1,0.7,e.04579l.jpg,Collection Egypt,E.04579l,Stamp seal,Scarab with representations of Horus and Amon,Egyptian,-1295 / -1069,
1.4,1.1,0.7,e.05703.14.jpg,Collection Egypt,E.05703.14,Stamp seal,Scarab with the god Heh,Egyptian,-664 / -525,
1.5,0,0,e.07310.jpg,Collection Egypt,E.07310,Head (sculpture),Petite tête d'Amon,Egyptian,-1550 / -1069,
1.5,0,0,o.00491.jpg,Collection Near East,O.00491,Cylinder seal,Cylinder seal with presentation scene,Syrian,unknown,
1.5,1.1,0,o.00205.jpg,Collection Near East,O.00205,Bulla,Bull with six seal imprints,Seleucid,-312 / -63,
1.5,1.1,0.7,e.05384.jpg,Collection Egypt,E.05384,Stamp seal,Scarab with Horus and Seth,Egyptian,-1295 / -1069,
1.5,1.1,0.7,e.04579b.jpg,Collection Egypt,E.04579b,Stamp seal,Scarab with Thoth and Re-Horakhty,Egyptian,-1550 / -1069,
1.6,0,0,o.02779.jpg,Collection Near East,O.02779,Cylinder seal,Cylinder seal with a bird with human head and bull,Babylonian,-609 / -539,
1.6,1.3,0.8,e.04579i.jpg,Collection Egypt,E.04579i,Stamp seal,Scarab with representation of a Hathor-sistrum,Egyptian,-1550 / -1069,
1.7,0,0,o.00685.jpg,Collection Near East,O.00685,Cylinder seal,Cylinder seal with figures and animals,Culture unknown,unknown,
1.7,1.2,0.5,e.06632.jpg,Collection Egypt,E.06632,Stamp seal,Scarab with lions and bucraneum,Egyptian,-1295 / -945,
1.7,1.2,1.1,o.00582.jpg,Collection Near East,O.00582,Stamp seal,Stamp seal with head of a bull-man,Culture unknown,unknown,
1.7,1.3,0.8,e.06247a.jpg,Collection Egypt,E.06247a,Stamp seal,Scarab with Montu,Egyptian,-1550 / -1186,
1.7,1.4,0.7,e.05613.jpg,Collection Egypt,E.05613,Stamp seal,Scaraboid with winged sphinx,Phoenician,-1200 / -330,
1.8,0,0,o.00478.jpg,Collection Near East,O.00478,Cylinder seal,Cylinder seal with deity and two persons,Culture unknown,unknown,
1.8,0,0,o.00576.jpg,Collection Near East,O.00576,Cylinder seal,Cylinder seal with homage scene,Hittite,-1450 / -1190,
1.8,1,0,o.01603.jpg,Collection Near East,O.01603,Cylinder seal,Cylinder seal with presentation scene,Mesopotamia,,
1.8,1.2,0.8,e.02107.jpg,Collection Egypt,E.02107,Stamp seal,Scarab with the representation of a Hathor-head and 'anra'-signs,Egyptian,-1640 / -1500,
1.8,1.3,0.7,e.07948h.jpg,Collection Egypt,E.07948h,Stamp seal,Cowroid with Hathor-head (sistrum),Egyptian,-1550 / -1295,
1.8,1.3,0.9,e.05701.4.jpg,Collection Egypt,E.05701.4,Stamp seal,Scarab with the god Heh,Egyptian,-747 / -656,
1.9,0,0,o.00611.jpg,Collection Near East,O.00611,Cylinder seal,Cylinder seal with presentation scene,Culture unknown,unknown,
1.9,1,0.4,e.04937.jpg,Collection Egypt,E.04937,Stamp seal,Wdjat-eye seal-amulet,Egyptian,-1550 / -1069,
1.9,1.3,0.9,e.02619.jpg,Collection Egypt,E.02619,Stamp seal,Scarab,Egyptian,-1640 / -1500,
1.9,1.5,0.8,e.04579k.jpg,Collection Egypt,E.04579k,Stamp seal,Scarab with the name of Amon-re,Egyptian,-1550 / -1069,
2,0,0,e.06953.jpg,Collection Egypt,E.06953,Head (sculpture),Tête d'Hathor,Egyptian,unknown,
2,0,0,o.00608.jpg,Collection Near East,O.00608,Cylinder seal,Cylinder seal with presentation scene,Babylonian,-2000 / -1600,
2,1.1,0,o.01620.jpg,Collection Near East,O.01620,Cylinder seal,Cylinder seal with libation,Babylonian,-2000 / -1600,
2,1.4,0.9,e.07949d.jpg,Collection Egypt,E.07949d,Stamp seal,Scarab with Ptah and Horus,Egyptian,-1295 / 1069,
2,1.4,0.9,e.08367a.jpg,Collection Egypt,E.08367a,Stamp seal,Scarab with ram-headed sphinx,Egyptian,-1295 / -1069,
2,1.45,1,e.05862.jpg,Collection Egypt,E.05862,Stamp seal,Human-head scaraboid,Egyptian,-1295 / -656,
2,1.5,0.9,e.07949c.jpg,Collection Egypt,E.07949c,Stamp seal,Scarab of Ramesses II,Egyptian,-1295 / -1069,
2,1.6,0,o.04903.jpg,Collection Near East,O.04903,Stamp seal,Stamp seal with animal head,Sasanian,224 / 642,
2.05,1.6,0.9,e.05861.jpg,Collection Egypt,E.05861,Stamp seal,Human-head scaraboid,Egyptian,-664 / -525,
2.1,1.6,0.8,e.05860.jpg,Collection Egypt,E.05860,Stamp seal,Human-head scaraboid,Egyptian,-1295 / -945,
2.1,1.8,0,o.04867.jpg,Collection Near East,O.04867,Stamp seal,Stamp seal with quadruped,Culture unknown,,
2.2,0,0,o.02782.jpg,Collection Near East,O.02782,Cylinder seal,Cylinder seal with hunting scene,Babylonian,-609 / -539,
2.2,0,0,o.00481.jpg,Collection Near East,O.00481,Cylinder seal,Cylinder seal with two persons,Syrian,-1450 / -1190,
2.2,1.6,0.8,e.05028.jpg,Collection Egypt,E.05028,Stamp seal,Scarab of Ramesses II,Egyptian,-1279 / -1213,
2.2,1.7,0.7,e.05353.jpg,Collection Egypt,E.05353,Stamp seal,Fish-shaped rectangular plaque with representation of Bes,Egyptian,-1295 / -1069,
2.3,0,0,o.00675.jpg,Collection Near East,O.00675,Cylinder seal,Cylinder seal with fantasy animal and bull,Assyrian,unknown,
2.3,0,0,o.00599.jpg,Collection Near East,O.00599,Cylinder seal,Cylinder seal with presentation scene,Mesopotamia,-2150 / -2000,
2.3,0.8,0,o.00861.jpg,Collection Near East,O.00861,Cylinder seal,Cylinder seal with solar god and assistant,Akkadian,-2350 / -2154,
2.3,2.1,0,aam_02008.1.17.jpg,Collection America,AAM 02008.1.17,Head (sculpture),Tête anthropomorphe,Teotihuacán,200 / 600,
2.3,2.2,1.8,o.04630.jpg,Collection Near East,O.04630,Stamp seal,Stamp seal with dog,Culture unknown,unknown,
2.4,0,0,o.00471.jpg,Collection Near East,O.00471,Cylinder seal,"Cylinder seal with bird, figure with head of a bird and a fantasy animal",Akkadian,-2400 / -2000,
2.4,0,0,o.00462.jpg,Collection Near East,O.00462,Cylinder seal,Cylinder seal with homage scene,Babylonian,unknown,
2.4,1,0,o.01474.jpg,Collection Near East,O.01474,Cylinder seal,Cylinder seal with hunting scene,Culture unknown,unknown,
2.4,1.3,0.8,e.05814.jpg,Collection Egypt,E.05814,Stamp seal,Cowroid displaying Bes,Egyptian,-945 / -656 (uncertain),
2.5,0,0,e.06813.jpg,Collection Egypt,E.06813,Head (sculpture),Tête d'homme,Egyptian,unknown,
2.5,0,0,o.00569.jpg,Collection Near East,O.00569,Cylinder seal,Cylinder seal with fantasy figure and unicorn,Assyrian,unknown,
2.5,0,0,o.00044.jpg,Collection Near East,O.00044,Cylinder seal,Cylinder seal with goddess and creatures,Hittite,-1450 / -1190,
2.5,0,0,o.00473.jpg,Collection Near East,O.00473,Cylinder seal,Cylinder seal with presentation scene,Mesopotamia,-2150 / -2000,
2.5,1.1,0,o.01638.jpg,Collection Near East,O.01638,Cylinder seal,Cylinder seal with two winged quadrupeds,Assyrian,unknown,
2.5,1.8,0,o.00236.jpg,Collection Near East,O.00236,Bulla,Bull with triple imprint of a cylinder seal,Babylonian,unknown,
2.6,0,0,o.00556.jpg,Collection Near East,O.00556,Cylinder seal,Cylinder seal with battle scene,Akkadian,-2350 / -2154,
2.7,0,0,o.00803.jpg,Collection Near East,O.00803,Cylinder seal,Cylinder seal with presentation seal,Culture unknown,-2000 / -1760,
2.7,1.1,0,o.01387.jpg,Collection Near East,O.01387,Cylinder seal,Cylinder seal with hero and the Sacred Tree,Assyrian,-1500 / -1201,
2.7,1.9,1.2,e.05723.9.jpg,Collection Egypt,E.05723.9,Stamp seal,Ram-headed scaraboid,Egyptian,-747 / -656,
2.749,1.02,0,aam_02008.1.346.jpg,Collection America,AAM 02008.1.346,Head (sculpture),Animal's head,Culture unknown,unknown,
2.8,0,0,o.02751.jpg,Collection Near East,O.02751,Cylinder seal,Cylinder seal with archer,Assyrian,unknown,
2.8,0,0,o.02781.jpg,Collection Near East,O.02781,Cylinder seal,Cylinder seal with hunting scene,Culture unknown,unknown,
2.8,1.8,0,o.01578.jpg,Collection Near East,O.01578,Cylinder seal,Cylinder seal with battle scene,Akkadian,-2350 / -2154,
2.8,1.8,0,o.04926.jpg,Collection Near East,O.04926,Cylinder seal,Cylinder seal with hunting scene,Syrian,,
2.9,0,0,o.00622.jpg,Collection Near East,O.00622,Cylinder seal,Cylinder seal with battle scene,Akkadian,-2350 / -2154,
2.9,0,0,o.00457.jpg,Collection Near East,O.00457,Cylinder seal,Cylinder seal with god Martu and mediating goddess,Babylonian,-2004 / -1600,
2.9,1.5,0,o.01611.jpg,Collection Near East,O.01611,Cylinder seal,Cylinder seal with Martu and two gods,Babylonian,-2000 / -1600,
2.9,2.7,1.7,aam_02008.1.14.jpg,Collection America,AAM 02008.1.14,Head (sculpture),Tête anthropomorphe,Teotihuacán,unknown,
3,0,0,aam_00072.6.jpg,Collection America,AAM 00072.6,Head (sculpture),Petite tête de jaguar,Maya,unknown,
3,0,0,e.07771.jpg,Collection Egypt,E.07771,Head (sculpture),Tête de vautour,Egyptian,unknown,
3,0,0,f.08411.jpg,Collection European ethnology,F.08411,Patacon,Head of a man,,1850 / 1950,
3,0,0,f.08415.jpg,Collection European ethnology,F.08415,Patacon,Head of a woman,,1850 / 1950,
3,0,0,f.08416.jpg,Collection European ethnology,F.08416,Patacon,Head of a woman,,1850 / 1950,
3,0,0,f.08417.jpg,Collection European ethnology,F.08417,Patacon,Head of a woman,,1850 / 1950,
3,0,0,o.00560.jpg,Collection Near East,O.00560,Cylinder seal,Cylinder seal with presentation scene,Mesopotamia,unknown,
3,2.5,0,e.04019.jpg,Collection Egypt,E.04019,Head (sculpture),Tête d'homme,Egyptian,-332 / 395,
3,2.6,0,e.02376.jpg,Collection Egypt,E.02376,Head (sculpture),Tête pour incrustation,Egyptian,-1550 / -1069,
3,2.6,0,o.01342.jpg,Collection Near East,O.01342,Cylinder seal,Cylinder seal with battle scene,Mesopotamia,-2112 / -2004,
3,2.6,2,e.05643.jpg,Collection Egypt,E.05643,Seal,Seal imprint with inscription,Egyptian,-664 / -331,
3,2.7,0,e.04027.jpg,Collection Egypt,E.04027,Head (sculpture),Tête d'homme,Egyptian,-332 / 395,
3.3,0,0,f.08405.jpg,Collection European ethnology,F.08405,Patacon,Head of a man,,1850 / 1950,
3.3,0,0,f.08414.jpg,Collection European ethnology,F.08414,Patacon,Head of a woman,,1850 / 1950,
3.3,0,0,f.08418.jpg,Collection European ethnology,F.08418,Patacon,Head of a woman,,1850 / 1950,
3.3,0,0,ir.0597.jpg,Collection Iran,IR.0597,Stamp seal,Stamp seal with two goats,Culture unknown,unknown,
3.3,0,0,o.00596.jpg,Collection Near East,O.00596,Cylinder seal,Cylinder seal with two gods,Kassite,-1600 / -1180,
3.3,2.9,0.9,e.05701.7.jpg,Collection Egypt,E.05701.7,Stamp seal,Rectangular paque with the name of Amun-re,Egyptian,-747 / -525,
3.4,0,0,o.02681.jpg,Collection Near East,O.02681,Head (sculpture),Female head,Assyrian,-850 / -701,
3.4,0,0,o.02637.jpg,Collection Near East,O.02637,Sculpture,Fragment of a feminine head,Culture unknown,unknown,
3.4,3,0.75,o.00396.jpg,Collection Near East,O.00396,Statuette, Figurine,Assyrian head,Assyrian,-900 / -701
3.5,0,0,e.06950.jpg,Collection Egypt,E.06950,Head (sculpture),Tête de cheval,Egyptian,unknown,
3.5,0,0,f.08408.jpg,Collection European ethnology,F.08408,Patacon,Head of a man,,1850 / 1950,
3.5,0,0,f.08409.jpg,Collection European ethnology,F.08409,Patacon,Head of a man,,1850 / 1950,
3.5,0,0,f.08410.jpg,Collection European ethnology,F.08410,Patacon,Head of a man,,1850 / 1950,
3.5,0,0,ir.0742.jpg,Collection Iran,IR.0742,Head (sculpture),Tête humaine,Culture unknown,unknown,
3.5,2,0,ir.0772.jpg,Collection Iran,IR.0772,Head (sculpture),,Culture unknown,unknown,
3.5,2,0,o.01366.jpg,Collection Near East,O.01366,Cylinder seal,Cylinder seal with two scenes,Mesopotamia,-2600 / -2334,
3.5,2.5,0,e.00506.jpg,Collection Egypt,E.00506,Head (sculpture),Tête humaine en terre émaillée,Egyptian,-3000 / -2686,
3.5,2.5,0,2014.275.0001.jpg,Collection European ethnology,2014.275.0001,Patacon,Head of a woman,,1850 / 1950,
3.5,3,0,aam_02008.1.18.jpg,Collection America,AAM 02008.1.18,Head (sculpture),Tête zoomorphe,Teotihuacán,unknown,
3.5,3.2,0,aam_02008.1.117.jpg,Collection America,AAM 02008.1.117,Head (sculpture),Fragment de tête anthropomorphe,Jalapazco Guerrero,unknown,
3.6,0,0,e.07727.jpg,Collection Egypt,E.07727,Head (sculpture),Tête de Bès,Egyptian,unknown,
3.6,0,0,f.08406.jpg,Collection European ethnology,F.08406,Patacon,Head of a man,,1850 / 1950,
3.6,0,0,ir.2556.jpg,Collection Iran,IR.2556,Head (sculpture),Fragment de figurine: tête de femme,Culture unknown,-1500 / -650,
3.6,3.1,2.5,o.00068.jpg,Collection Near East,O.00068,Tablet,Cuneiform tablet with sealed envelope,Mesopotamia,-2046 / -2038,
3.7,0,0,aam_01275.jpg,Collection America,AAM 01275,Head (sculpture),Hoofd van een beeldje,Aztecs,unknown,
3.7,2,0,e.04043.jpg,Collection Egypt,E.04043,Head (sculpture),Tête d'homme,Egyptian,-332 / 395,
3.7,2.8,2.15,aam_02008.1.35.jpg,Collection America,AAM 02008.1.35,Head (sculpture),Tête zoomorphe,Culture unknown,,
3.7,3.6,0,o.04817.jpg,Collection Near East,O.04817,Head (sculpture),,Syrian,unknown,
3.8,0,0,e.04946.jpg,Collection Egypt,E.04946,Head (sculpture),Tête de Sérapis,Egyptian,-332 / -30,
3.8,0,0,f.08407.jpg,Collection European ethnology,F.08407,Patacon,Head of a man,,1850 / 1950,
3.8,0,0,ir.2559.jpg,Collection Iran,IR.2559,Head (sculpture),,Culture unknown,unknown,
3.8,0,0,o.04615.jpg,Collection Near East,O.04615,Cylinder seal,Cylinder seal with combat scene,Culture unknown,unknown,
3.9,0,0,b000698-002.jpg,Collection National archaeology,B000698-002,Statuette, Figurine,Head of a female figurine,Gallo-Roman,
3.9,0,0,b000698-003.jpg,Collection National archaeology,B000698-003,Statuette, Figurine,Head of a female figurine,Gallo-Roman,
4,0,0,e.06568.jpg,Collection Egypt,E.06568,Head (sculpture),Tête de Bès,Egyptian,-30 / 395,
4,0,0,f.08424.jpg,Collection European ethnology,F.08424,Patacon,Black Peter's head,,1850 / 1950,
4,0,0,f.08397.jpg,Collection European ethnology,F.08397,Patacon,Head of a man,,1850 / 1950,
4,0,0,f.08404.jpg,Collection European ethnology,F.08404,Patacon,Head of a man,,1850 / 1950,
4,0,0,o.04864.jpg,Collection Near East,O.04864,Stamp seal,Stamp seal with animals,Culture unknown,-4000 / -2950,
4,2.3,1.3,e.00724.jpg,Collection Egypt,E.00724,Head (sculpture),Tête de vache votive,Egyptian,-1550 / -1295,
4,3,0,e.08021.jpg,Collection Egypt,E.08021,Head (sculpture),Tête miniature d'une toute jeune fille,Egyptian,-1550 / -1069,
4.2,2.9,1.7,e.03221.jpg,Collection Egypt,E.03221,Stamp seal,Ram-headed scaraboid,Egyptian,-747 / -656,
4.2,3.4,0,e.04054.jpg,Collection Egypt,E.04054,Head (sculpture),Tête grotesque,Egyptian,,
4.2,3.9,0.9,o.00524.jpg,Collection Near East,O.00524,Tablet,Cuneiform tablet with cylinder seal impression (with presentation scene),Mesopotamia,-2037 / -2029,
4.3,0,0,aam_00089.2.2.jpg,Collection America,AAM 00089.2.2,Head (sculpture),Fragment de figurine,Tumaco - La Tolita,-500 / 500,
4.3,3.4,0,e.04028.jpg,Collection Egypt,E.04028,Head (sculpture),Tête de femme,Egyptian,-332 / 395,
4.4,1.4,0,e.09120.jpg,Collection Egypt,E.09120,Head (sculpture),Tête d'Osiris aux traits épatés,Egyptian,unknown,
4.4,3.5,0,e.04029.jpg,Collection Egypt,E.04029,Head (sculpture),Tête de femme,Egyptian,-332 / 395,
4.5,0,0,f.08422.jpg,Collection European ethnology,F.08422,Patacon,Black Peter's head,,1850 / 1950,
4.5,0,0,f.08423.jpg,Collection European ethnology,F.08423,Patacon,Black Peter's head,,1850 / 1950,
4.5,0,0,f.00404.jpg,Collection European ethnology,F.00404,Patacon,Small head of Medusa ?,,1801 / 1900,
4.5,3,0,e.04595.jpg,Collection Egypt,E.04595,Head (sculpture),Tête de Bès,Egyptian,-1295 / -1186,
4.5,3,0,e.04048.jpg,Collection Egypt,E.04048,Head (sculpture),Tête de femme,Egyptian,-332 / 395,
4.5,3.2,0,e.04010.jpg,Collection Egypt,E.04010,Head (sculpture),Tête de femme,Egyptian,-332 / 395,
4.5,3.5,0,e.04058.jpg,Collection Egypt,E.04058,Head (sculpture),Tête d'enfant,Egyptian,-664 / -332,
4.5,3.5,0,e.04031.jpg,Collection Egypt,E.04031,Head (sculpture),Tête d'homme,Egyptian,-332 / 395,
4.5,3.5,0,ir.0771.jpg,Collection Iran,IR.0771,Head (sculpture),,Culture unknown,unknown,
4.5,3.9,0,o.00061.jpg,Collection Near East,O.00061,Tablet,Cuneiform tablet with cylinder seal impression,Mesopotamia,-2037 / -2029,
4.5,4,0,e.04017.jpg,Collection Egypt,E.04017,Head (sculpture),Tête d'homme,Egyptian,-332 / 395,
4.5,4,0,e.04038.jpg,Collection Egypt,E.04038,Head (sculpture),Tête de femme,Egyptian,-332 / 395,
4.5,4,0,o.00209.jpg,Collection Near East,O.00209,Bulla,Bull with twenty-one imprints,Seleucid,-175 / -164,
4.5,4,0,o.00110.jpg,Collection Near East,O.00110,Tablet,Cuneiform tablet with cylinder seal impression,Mesopotamia,-2028 / -2004,
4.6,0,0,aam_01266.jpg,Collection America,AAM 01266,Head (sculpture),Petite tête,Aztecs,unknown,
4.6,2.1,0,aam_02008.1.12.jpg,Collection America,AAM 02008.1.12,Head (sculpture),Tête anthropomorphe,Teotihuacán,1 / 200 (uncertain),
4.6,2.5,0,o.03477.jpg,Collection Near East,O.03477,Head (sculpture),Female head,Syrian,-850 / -701,
4.7,0,0,ir.2552.jpg,Collection Iran,IR.2552,Head (sculpture),Tête de femme (fragment de figurine),Culture unknown,-1500 / -1000,
4.7,2.3,0,e.03097.jpg,Collection Egypt,E.03097,Head (sculpture),Tête de canard,Egyptian,unknown,
4.7,3.6,3.5,aam_02008.1.13.jpg,Collection America,AAM 02008.1.13,Head (sculpture),Tête zoomorphe,Teotihuacán,-150 / 650,
4.7,4.3,2.2,aam_02008.1.15.jpg,Collection America,AAM 02008.1.15,Head (sculpture),Tête anthropomorphe,Teotihuacán,-100 / 600 (uncertain),
4.8,3,0,e.04036.jpg,Collection Egypt,E.04036,Head (sculpture),Tête d'homme,Egyptian,-332 / 395,
4.8,4,0,e.04014.jpg,Collection Egypt,E.04014,Head (sculpture),Tête de femme,Egyptian,-332 / 395,
4.9,0,0,2014.275.0012.jpg,Collection European ethnology,2014.275.0012,Patacon,Bird with human head,,1850 / 1950,
4.9,4.4,0,aam_02008.1.16.jpg,Collection America,AAM 02008.1.16,Head (sculpture),Tête anthropomorphe,Teotihuacán,100 / 650,
4.9,4.6,2.7,o.00187.jpg,Collection Near East,O.00187,Tablet,Cuneiform tablet and sealed envelope,Mesopotamia,-2150 / -2000,
5,0,0,f.08396.jpg,Collection European ethnology,F.08396,Patacon,Head of a bishop,,1850 / 1950,
5,0,0,f.08402.jpg,Collection European ethnology,F.08402,Patacon,Head of a boy with pointed hat,,1850 / 1950,
5,0,0,f.08403.jpg,Collection European ethnology,F.08403,Patacon,Head of a boy with pointed hat,,1850 / 1950,
5,2,0,ir.0075.jpg,Collection Iran,IR.0075,Jingles, Jingle bell,,Iranian,unknown
5,3,0,f.08421.jpg,Collection European ethnology,F.08421,Patacon,Head of a horse,,1850 / 1950,
5,3,0,f.00475.jpg,Collection European ethnology,F.00475,Patacon,Horse's head,,1901 / 1913,
5,5,0,o.00533.jpg,Collection Near East,O.00533,Bulla,Bull with presentation scene,Mesopotamia,-2150 / -2000,
5.1,5,4,e.04026.jpg,Collection Egypt,E.04026,Head (sculpture),Tête de lion,Egyptian,-332 / 395,
5.2,0,0,f.08413.jpg,Collection European ethnology,F.08413,Patacon,Head of a man,,1850 / 1950,
5.2,0,0,b000135-001.jpg,Collection National archaeology,B000135-001,Fibula,,Gallo-Roman,,
5.2,0,0,b000698-001.jpg,Collection National archaeology,B000698-001,Statuette, Figurine,Head of a female figurine,Gallo-Roman,
5.2,0,0,o.00671.jpg,Collection Near East,O.00671,Cylinder seal,Cylinder seal with fantasy animal and a deer,Culture unknown,,
5.3,3.5,0,e.04045.jpg,Collection Egypt,E.04045,Head (sculpture),Tête d'homme barbu,Egyptian,-332 / 395,
5.4,4.5,1.7,o.00528.jpg,Collection Near East,O.00528,Tablet,Cuneiform tablet with cylinder seal impression (with presentation scene),Mesopotamia,-2037 / -2029,
5.4,5,0,aam_02008.1.32.jpg,Collection America,AAM 02008.1.32,Head (sculpture),,Culture unknown,unknown,
5.5,3.4,0,e.04022.jpg,Collection Egypt,E.04022,Head (sculpture),Tête de femme,Egyptian,-332 / 395,
5.5,3.5,1.5,e.07760.jpg,Collection Egypt,E.07760,Head (sculpture),Tête d'uraeus,Egyptian,unknown,
5.5,4,0,e.04024.jpg,Collection Egypt,E.04024,Head (sculpture),Tête de femme,Egyptian,-332 / 395,
5.5,4.8,0,e.04025.jpg,Collection Egypt,E.04025,Head (sculpture),Tête d'homme,Egyptian,-332 / 395,
5.7,2.6,2,e.00523.jpg,Collection Egypt,E.00523,Head (sculpture),Tête de serpent,Egyptian,-664 / -525,
5.7,3.4,3.1,o.04977.jpg,Collection Near East,O.04977,Statuette, Figurine,Head of a priest or an orant,Phoenician,-900 / -800
5.7,5.3,1.7,o.00107.jpg,Collection Near East,O.00107,Tablet,Cuneiform tablet with cylinder seal impression,Mesopotamia,-2150 / -2000,
5.8,4.8,0,ir.0396.jpg,Collection Iran,IR.0396,Head (sculpture),Ibex,Iranian,unknown,
5.822,2.058,1.008,aam_00526.2-9.jpg,Collection America,AAM 00526.2-9,Point (stone tool),Head of a projectile,Culture unknown,unknown,
6,0,0,aam_01229.jpg,Collection America,AAM 01229,Head (sculpture),Tête de figurine,Maya,unknown,
6,0,0,ir.0094.jpg,Collection Iran,IR.0094,Pin (fastener),Pin with animal head,Iranian,-1300 / -601,
6,3,0,e.08012.jpg,Collection Egypt,E.08012,Head (sculpture),Tête de lion : extrêmité de manche (large fente sur la tête et la nuque),Egyptian,unknown,
6,3,0,e.04044.jpg,Collection Egypt,E.04044,Head (sculpture),Tête de vieillard,Egyptian,-332 / 395,
6,4,0,e.03805.jpg,Collection Egypt,E.03805,Head (sculpture),Tête d'étranger barbu,Egyptian,-332 / 395,
6,4.5,0,e.04008.jpg,Collection Egypt,E.04008,Head (sculpture),Tête de femme,Egyptian,-332 / 395,
6,5,0,e.04059.jpg,Collection Egypt,E.04059,Head (sculpture),Tête grotesque d'enfant,Egyptian,-332 / 395,
6,5,0,f.00377.jpg,Collection European ethnology,F.00377,Patacon,Antique small head,,1801 / 1900,
6,5,2.8,o.00012.jpg,Collection Near East,O.00012,Tablet,Cuneiform tablet with sealed envelope,Mesopotamia,-2037 / -2029,
6,5,4.5,e.03939.jpg,Collection Egypt,E.03939,Head (sculpture),Tête d'homme,Egyptian,-332 / 395,
6,5,5,e.06844.jpg,Collection Egypt,E.06844,Head (sculpture),Tête d'étranger,Egyptian,-1352 / -1336,
6,5.5,0,f.00476.jpg,Collection European ethnology,F.00476,Patacon,Police officer's head,,1901 / 1913,
6.1,0,0,e.09245.jpg,Collection Egypt,E.09245,Scepter,Lotus-shaped scepter head,Egyptian,unknown,
6.2,5.8,0,o.00857.jpg,Collection Near East,O.00857,Head (sculpture),Head of a praying person,Mesopotamia,-2550 / -2350,
6.3,0,0,b000413-001.jpg,Collection National archaeology,B000413-001,Statuette, Figurine,Head of a female figurine,Gallo-Roman,
6.35,4.75,2,o.04747.jpg,Collection Near East,O.04747,Mould,Mould of the head of Astarte,Culture unknown,-1500 / -1300,
6.4,0,0,aam_00089.2.1.jpg,Collection America,AAM 00089.2.1,Head (sculpture),Fragment de figurine,Tumaco - La Tolita,-500 / 500,
6.4,6.1,5.1,e.09196.jpg,Collection Egypt,E.09196,Sculpture,Fragment of a sculpted head,Egyptian,unknown,
6.5,6,0,aam_00051.1.jpg,Collection America,AAM 00051.1,Scepter,Scepter head: deer or mythic animal,Sinù,1000 / 1600,
6.5,6.5,5.8,e.09131.jpg,Collection Egypt,E.09131,Head (sculpture),"Tête d'un personnage portant la mèche du prêtre-sem et identifiable à Khaemouaset, fils de Ramsès II",Egyptian,-1295 / -1186,
6.629,2.84,1.098,aam_00038.88.jpg,Collection America,AAM 00038.88,Point (stone tool),Lance-head,Culture unknown,-9000 / -6000,
6.7,3,0,ir.0198.jpg,Collection Iran,IR.0198,Statuette, Figurine,,Iranian,
6.7,3.6,0,ir.0353.jpg,Collection Iran,IR.0353,Statuette, Figurine,,Iranian,unknown
6.9,5.1,0,o.01802.jpg,Collection Near East,O.01802,Head (sculpture),Head of a praying person,Mesopotamia,-2550 / -2350,
7,0,0,aam_00048.26.143.jpg,Collection America,AAM 00048.26.143,Head (sculpture),,Maya,unknown,
7,0,0,2014.275.0020.jpg,Collection European ethnology,2014.275.0020,Patacon,Antique head,,1850 / 1950,
7,3,0,e.00620.jpg,Collection Egypt,E.00620,Head (sculpture),Petite tête de statuette avec longue barbe,Egyptian,-1550 / -1295,
7,4.5,4.5,e.03947.jpg,Collection Egypt,E.03947,Head (sculpture),Tête de femme,Egyptian,-332 / 395,
7,5,0,e.04009.jpg,Collection Egypt,E.04009,Head (sculpture),Tête d'enfant,Egyptian,-332 / 395,
7,5,4.5,e.03957.jpg,Collection Egypt,E.03957,Head (sculpture),Tête de femme,Egyptian,-332 / 395,
7,5.5,0,e.04526.jpg,Collection Egypt,E.04526,Sculpture,Fragment of a cat head,Egyptian,1 / 100,
7,6,0,e.04037.jpg,Collection Egypt,E.04037,Head (sculpture),Tête d'enfant,Egyptian,-332 / 395,
7,6,0,e.04057.jpg,Collection Egypt,E.04057,Head (sculpture),Tête de femme,Egyptian,-664 / -332,
7,6.5,4.8,e.06337.jpg,Collection Egypt,E.06337,Head (sculpture),Petite tête d'homme au crâne rasé,Egyptian,-664 / -525,
7.3,0.5,0,o.00527.jpg,Collection Near East,O.00527,Tablet,Cuneiform tablet with cylinder seal impression,Mesopotamia,-2037 / -2029,
7.4,0,0,ir.2318.jpg,Collection Iran,IR.2318,Macehead,Head of a mace,Iranian,-4500 / -3501,
7.5,0,0,e.04147.jpg,Collection Egypt,E.04147,Head (sculpture),Tête royale,Egyptian,-664 / -332,
7.5,0,0,f.00054.jpg,Collection European ethnology,F.00054,Patacon mould,African head,,1775 / 1860,
7.5,0,0,f.00055.jpg,Collection European ethnology,F.00055,Patacon mould,African head,,1775 / 1860,
7.5,0,0,f.08398.jpg,Collection European ethnology,F.08398,Patacon,Head of a man (bishop?),,1850 / 1950,
7.5,0,0,f.08400.jpg,Collection European ethnology,F.08400,Patacon,Head of a man (bishop?),,1850 / 1950,
7.5,0,0,f.08401.jpg,Collection European ethnology,F.08401,Patacon,Head of a man (bishop?),,1850 / 1950,
7.5,2.7,0,f.00477.jpg,Collection European ethnology,F.00477,Patacon,Head of a man with a knit cap,,1901 / 1913,
7.5,2.9,0,e.01315a.jpg,Collection Egypt,E.01315a,Head (sculpture),Tête d'hippopotame,Egyptian,-4000 / -3000,
7.5,2.9,0,e.01315b.jpg,Collection Egypt,E.01315b,Head (sculpture),Tête d'hippopotame,Egyptian,-4000 / -3000,
7.5,4.8,0,e.04032.jpg,Collection Egypt,E.04032,Head (sculpture),Tête de femme,Egyptian,-332 / 395,
7.5,5,3.5,e.03942.jpg,Collection Egypt,E.03942,Head (sculpture),Tête de femme,Egyptian,-332 / 395,
7.5,5.5,0,f.08419.jpg,Collection European ethnology,F.08419,Patacon,Head of a horse,,1850 / 1950,
7.5,5.5,0,f.08420.jpg,Collection European ethnology,F.08420,Patacon,Head of a horse,,1850 / 1950,
7.5,6,0,e.04002.jpg,Collection Egypt,E.04002,Head (sculpture),Tête de femme,Egyptian,-332 / 395,
7.5,6,0,ir.0705.jpg,Collection Iran,IR.0705,Pin (fastener),Pin with decorative head,Iranian,-1000 / -701,
7.5,7,1,e.03965.jpg,Collection Egypt,E.03965,Head (sculpture),Tête de méduse,Egyptian,-332 / 395,
7.6,0,0,b000645-003.jpg,Collection National archaeology,B000645-003,Mortar (vessel),,Gallo-Roman,,
7.8,4.8,0,e.04021.jpg,Collection Egypt,E.04021,Head (sculpture),Tête de femme,Egyptian,-332 / 395,
7.8,5.4,0,e.04020.jpg,Collection Egypt,E.04020,Head (sculpture),Tête de femme,Egyptian,-332 / 395,
7.8,6.5,0,ir.0169.jpg,Collection Iran,IR.0169,Onlay (applied decoration),,Iranian,,
8,0,0,f.08399.jpg,Collection European ethnology,F.08399,Patacon,Head of a man (bishop?),,1850 / 1950,
8,0,0,h.2391.jpg,Collection India and South-East Asia,H.2391,Figurine fragment,Head of a figurine,Vietnamese,1200 / 1400,
8,4.19999990612268,3.1,o.00237.jpg,Collection Near East,O.00237,Seal,Seal with Gilgamesh,Hittite,-1450 / -1190,
8,5,0,e.04018.jpg,Collection Egypt,E.04018,Head (sculpture),Tête de femme,Egyptian,-332 / 395,
8,5,4,e.03927.jpg,Collection Egypt,E.03927,Head (sculpture),Tête d'homme barbu,Egyptian,-332 / 395,
8,5.5,0,e.04005.jpg,Collection Egypt,E.04005,Head (sculpture),Tête de femme,Egyptian,-332 / 395,
8,5.5,0,e.04003.jpg,Collection Egypt,E.04003,Head (sculpture),Tête de Sérapis,Egyptian,-332 / 395,
8,7,0,is.o.0255.jpg,Collection Islam,IS.O.0255,Statuette, Figurine,Female head,Islamic,800 / 1000
8,7.5,6.9,e.09195.jpg,Collection Egypt,E.09195,Head (sculpture),Tête d'homme sculptée dont la perruque est fissurée,Egyptian,unknown,
8,7.8,0,e.06422.jpg,Collection Egypt,E.06422,Head (sculpture),Tête de prisonnier,Egyptian,-664 / -332,
8.1,0,0,e.00679.jpg,Collection Egypt,E.00679,Head (sculpture),Tête de Harpocrate,Egyptian,-30 / 395,
8.3,6,0,aam_00056.11.22.jpg,Collection America,AAM 00056.11.22,Head (sculpture),,Maya,unknown,
8.5,0,0,aam_00089.2.21.jpg,Collection America,AAM 00089.2.21,Head (sculpture),Fragment de figurine,Culture unknown,-500 / 500,
8.5,0,0,e.06951c.jpg,Collection Egypt,E.06951c,Head (sculpture),Tête de bélier,Egyptian,unknown,
8.5,0,0,e.06951d.jpg,Collection Egypt,E.06951d,Head (sculpture),Tête de bélier,Egyptian,unknown,
8.5,4.5,0,e.04001.jpg,Collection Egypt,E.04001,Head (sculpture),Tête de femme,Egyptian,-332 / 395,
8.6,0,0,o.04784.jpg,Collection Near East,O.04784,Scepter,Head of a sceptre,Mesopotamia,-750 / -701,
8.6,5.2,5.1,e.09199.jpg,Collection Egypt,E.09199,Head (sculpture),Tête avec traces de polychromie,Egyptian,unknown,
8.635,4.97,0.832,aam_00038.66.jpg,Collection America,AAM 00038.66,Point (stone tool),Lance-head or blade of a knife,Culture unknown,-8000 / -5000,
8.7,8.1,5.8,e.05346.jpg,Collection Egypt,E.05346,Head (sculpture),Tête d'homme au nez crochu,Egyptian,-200 / -150,
8.71,0,0,o.04695.jpg,Collection Near East,O.04695,Bucket,Bucket with ear in shape of a bird or snake head,Urartian,601 / 800,
8.9,4.2,0,b000321-001.jpg,Collection National archaeology,B000321-001,Statuette, Figurine,Masculine figurine,Gallo-Roman,
9,0,0,aam_00049.4.jpg,Collection America,AAM 00049.4,Head (sculpture),Old man with emaciated face,Tumaco - La Tolita,-600 / 400,
9,0,0,e.07751b.jpg,Collection Egypt,E.07751b,Head (sculpture),Tête de vautour surmontée de l'atef,Egyptian,unknown,
9,0,0,e.07751a.jpg,Collection Egypt,E.07751a,Head (sculpture),Tête de vautour surmontée de l'atef,Egyptian,unknown,
9,4.5,0,e.06728.jpg,Collection Egypt,E.06728,Head (sculpture),Tête de foret avec inscription,Egyptian,-1550 / -1295,
9,5.5,0,e.04004.jpg,Collection Egypt,E.04004,Head (sculpture),Tête de femme,Egyptian,-332 / 395,
9,7,0,e.02103.jpg,Collection Egypt,E.02103,Head (sculpture),Tête de sanglier,Egyptian,-664 / -332,
9,7,0,o.00190.jpg,Collection Near East,O.00190,Tablet,Cuneiform tablet with cylinder seal impression,Mesopotamia,unknown,
9,7.5,6.5,e.04146.jpg,Collection Egypt,E.04146,Head (sculpture),Tête de Bès,Egyptian,-332 / -30,
9,8.5,7,aam_05445.jpg,Collection America,AAM 05445,Vase (pot),Vase with feline's head,Chancay,1100 / 1450,
9,8.5,7,e.03893.jpg,Collection Egypt,E.03893,Head (sculpture),Tête de cheval,Egyptian,-332 / 395,
9.2,8,0,ir.0364.jpg,Collection Iran,IR.0364,Fragment,Bull's head,Iranian,-1000 / -601,
9.4,0,0,aam_00089.2.3.jpg,Collection America,AAM 00089.2.3,Head (sculpture),Fragment de figurine: tête grimaçante (félin),Tumaco - La Tolita,-500 / 500,
9.5,0,0,e.06412.jpg,Collection Egypt,E.06412,Statuette, Figurine,Fragment of a statuette : head of a man,Egyptian,ca. -2125 / -1650
9.5,0,0,e.06990.jpg,Collection Egypt,E.06990,Head (sculpture),Tête de déesse,Egyptian,unknown,
9.5,5,0,f.00400.jpg,Collection European ethnology,F.00400,Patacon,Child on worldglobe with mask or head in the hand,,1801 / 1900,
9.5,7,0,f.00445.jpg,Collection European ethnology,F.00445,Patacon,Bird with human head,,1801 / 1900,
9.5,7.5,0,e.08213.jpg,Collection Egypt,E.08213,Head (sculpture),Tête sans oreilles,Egyptian,unknown,
9.5,8.5,0,o.00199.jpg,Collection Near East,O.00199,Tablet,Cuneiform tablet with seal impressions,Mesopotamia,-211,
9.5,8.5,6.2,e.05888.jpg,Collection Egypt,E.05888,Head (sculpture),Tête virile,Egyptian,-2613 / -2494,
9.8,9.7,0,aam_00056.11.15.jpg,Collection America,AAM 00056.11.15,Head (sculpture),,Maya,unknown,
10,0,0,aam_00048.34.1.jpg,Collection America,AAM 00048.34.1,Head (sculpture),Tête de statuette,Culture unknown,unknown,
10,5,3,e.07752.jpg,Collection Egypt,E.07752,Head (sculpture),Tête de vautour,Egyptian,unknown,
10,6.6,0,e.06423.jpg,Collection Egypt,E.06423,Head (sculpture),Tête de prisonnier,Egyptian,-664 / -332,
10,8,3.5,e.02663.jpg,Collection Egypt,E.02663,Sculpture,Fragment of a head,Egyptian,-2160 / -1773,
10,8.5,3,o.00203.jpg,Collection Near East,O.00203,Tablet,Cuneiform tablet with seal impressions,Mesopotamia,-147,
10,9,0,e.04207.jpg,Collection Egypt,E.04207,Head (sculpture),Tête de bovidé,Egyptian,-332 / 395,
10.2,0,0,aam_00048.6.jpg,Collection America,AAM 00048.6,Head (sculpture),"Tête allongée, coiffée d'une haute coiffure portant une tête d'oslo",Maya,unknown,
10.2,4.3,3.9,e.09197.jpg,Collection Egypt,E.09197,Head (sculpture),Tête de pharaon avec couronne blanche,Egyptian,unknown,
10.2,9.4,6.9,e.07117.jpg,Collection Egypt,E.07117,Head (sculpture),Tête de roi anonyme avec uraeus sur serre tête,Egyptian,-2650 / -2165,
10.5,0,0,e.04943.jpg,Collection Egypt,E.04943,Head (sculpture),Tête d'Osiris,Egyptian,-664 / -332,
10.5,5.2,0,f.00346.jpg,Collection European ethnology,F.00346,Patacon mould,Bird with human head,,1801 / 1900,
10.8,0,0,b000110-001.jpg,Collection National archaeology,B000110-001,Pin (fastener),,Gallo-Roman,,
11,6,0,e.00660a.jpg,Collection Egypt,E.00660a,Head (sculpture),Tête d'Osiris,Egyptian,-664 / -525,
11,6,0,e.00660b.jpg,Collection Egypt,E.00660b,Head (sculpture),Tête d'Osiris,Egyptian,-664 / -525,
11,6,0,e.07336.jpg,Collection Egypt,E.07336,Head (sculpture),Tête royale,Egyptian,-2125 / -1650,
11,6.5,5,e.02104.jpg,Collection Egypt,E.02104,Head (sculpture),Tête de crocodile creusée en forme d'embouchure de fantaisie,Egyptian,-664 / -332,
11.3,5.5,4.1,e.02209.jpg,Collection Egypt,E.02209,Head (sculpture),Tête d'homme,Egyptian,-664 / -331,
11.3,11,0,aam_00056.11.5.jpg,Collection America,AAM 00056.11.5,Head (sculpture),,Maya,unknown,
11.5,0,0,o.02652.jpg,Collection Near East,O.02652,Statuette, Figurine,,Syrian,unknown
11.5,8.5,0,e.02672.jpg,Collection Egypt,E.02672,Head (sculpture),Tête d'homme aux traits émaciés,Egyptian,ca. -304 / 395,
11.6,0,0,e.00678.jpg,Collection Egypt,E.00678,Head (sculpture),Tête de Harpocrate,Egyptian,-30 / 395,
12,0,0,e.06743.jpg,Collection Egypt,E.06743,Head (sculpture),Tête de cheval,Egyptian,unknown,
12.35,0,0,b000383-012.jpg,Collection National archaeology,B000383-012,Pin (fastener),,Gallo-Roman,,
13,0,0,aam_00048.26.146.jpg,Collection America,AAM 00048.26.146,Whistle,Dignitary wearing een jaguar's head,Maya,250 / 600,
13,0,0,aam_01421.jpg,Collection America,AAM 01421,Head (sculpture),Tête d'animal,Maya,unknown,
13,0,0,etam_00046.6.jpg,Collection America,ETAM 00046.6,Human head,Tsantsa,Jivaro,unknown,
13,0,0,h.0562.jpg,Collection India and South-East Asia,H.0562,Head (sculpture),Head of apsara,Vietnamese,800 / 900,
13,5.5,4,e.03909.jpg,Collection Egypt,E.03909,Head (sculpture),Tête de femme,Egyptian,-332 / 395,
13.2,0,0,e.07295.jpg,Collection Egypt,E.07295,Head (sculpture),Tête d'antilope formant la partie supérieure d'un sceptre ouas,Egyptian,-3000 / -2686,
13.5,0,0,h.0565.jpg,Collection India and South-East Asia,H.0565,Head (sculpture),,Vietnamese,800 / 900,
13.5,0,0,b000383-013.jpg,Collection National archaeology,B000383-013,Pin (fastener),,Gallo-Roman,,
13.5,10.1,7.6,e.02816.jpg,Collection Egypt,E.02816,Head (sculpture),Tête de roi à l'état d'ébauche,Egyptian,-664 / -331,
13.7,10,0,aam_00056.11.25.jpg,Collection America,AAM 00056.11.25,Head (sculpture),,Maya,unknown,
14,11,0,o.04568.jpg,Collection Near East,O.04568,Axe (tool),Axe head,Phoenician,-1900 / -1800,
14.2,0,0,b004314-133.jpg,Collection Merovingians,B004314-133,Javelin head,,Merovingian,,
14.3,0,0,b000257-001.jpg,Collection National archaeology,B000257-001,Pull,Handle of a case,Gallo-Roman,,
14.5,0,0,e.07688.jpg,Collection Egypt,E.07688,Head (sculpture),Tête du dieu Anubis chacal,Egyptian,-1550 / -1069,
14.5,0,0,e.04395.jpg,Collection Egypt,E.04395,Head (sculpture),Tête virile avec inscription,Egyptian,-664 / -525,
14.5,5,0,ir.0310.jpg,Collection Iran,IR.0310,Idol,,Iranian,,
14.6,0,0,aam_00083.2.jpg,Collection America,AAM 00083.2,Vase (pot),Globular vase with bird's head-shaped lid,Veraguas,700 / 1100,
15,9.5,5,o.04705.jpg,Collection Near East,O.04705,Fragment,Head of a scorpion-man,Syrian,-870,
15.9,11.7,7.1,e.01813.jpg,Collection Egypt,E.01813,Head (sculpture),Fragment of a kop,Egyptian,-30 / 395,
16.5,0,0,ir.0081.jpg,Collection Iran,IR.0081,Pin (fastener),Pin with animal head,Iranian,-1300 / -601,
16.5,8,7,e.03963.jpg,Collection Egypt,E.03963,Head (sculpture),Tête d'homme,Egyptian,-332 / 395,
17,16,0,2677.00.jpg,Collection Moulds and casts,2677,Mould,Door decoration: head of a woman,,1863 / 1926,
17,17,0,0806.00.jpg,Collection Moulds and casts,806,Mould,Console with a human head and foliage,,1863 / 1926,
17,17,0,0807.00.jpg,Collection Moulds and casts,807,Mould,Console with a human head and foliage,,1863 / 1926,
17.4,0,0,h.0564.jpg,Collection India and South-East Asia,H.0564,Head (sculpture),Head of apsara?,Vietnamese,800 / 900,
17.5,12,9,e.06387.jpg,Collection Egypt,E.06387,Head (sculpture),Tête de vieillard avec inscription,Egyptian,-664 / -525,
18,0,0,e.05698.jpg,Collection Egypt,E.05698,Head (sculpture),Amon,Egyptian,-1550 / -1295,
18,8,0,f.00478.jpg,Collection European ethnology,F.00478,Patacon,Head of a military,,1901 / 1912,
18,9.5,0,ir.0704.jpg,Collection Iran,IR.0704,Pin (fastener),Pin with decorative head,Iranian,-1000 / -701,
18.1,9.8,4.6,e.03227.jpg,Collection Egypt,E.03227,Scepter,Ram-shaped scepter head,Egyptian,-664 / -331,
18.8,18.1,17.4,e.06839.jpg,Collection Egypt,E.06839,Head (sculpture),Tête d'homme,Egyptian,-1550 / -1069,
19.4,10.5,3.2,o.04719.jpg,Collection Near East,O.04719,Head (sculpture),Abstract head,Southern Arabia,unknown,
19.5,14,11.1,e.09200.jpg,Collection Egypt,E.09200,Head (sculpture),Tête de taureau Apis ?,Egyptian,(uncertain),
20,17,0,0577.00.jpg,Collection Moulds and casts,577,Mould,Fragment of table leg: head of panther,,1846 / 1926,
21,18,9,ir.0386.jpg,Collection Iran,IR.0386,Vase (pot),,Iranian,unknown,
21,19,0,2776.00.jpg,Collection Moulds and casts,2776,Mould,Female head,,1863 / 1926,
21,21,0,1094.00.jpg,Collection Moulds and casts,1094,Mould,Female head,,1863 / 1926,
21.5,14,0,e.08214.jpg,Collection Egypt,E.08214,Head (sculpture),Tête au crâne rasé,Egyptian,-380 / -343,
22,20,0,2850.00.jpg,Collection Moulds and casts,2850,Mould,Head of a woman with religious cap,,1863 / 1926,
22,21,0,1095.00.jpg,Collection Moulds and casts,1095,Mould,Female head,,1863 / 1926,
22.5,0,0,e.06344.jpg,Collection Egypt,E.06344,Head (sculpture),Amon,Egyptian,-1550 / -1069,
22.5,5,0,ir.0076.jpg,Collection Iran,IR.0076,Pin (fastener),,Iranian,unknown,
22.5,16.8,16.6,aam_00067.16.jpg,Collection America,AAM 00067.16,Head (sculpture),,Maya,600 / 900,
22.5,22,0,e.06805.jpg,Collection Egypt,E.06805,Head (sculpture),Tête de roi,Egyptian,-1550 / -1295,
23,13.5,10.2,sc.069.jpg,Collection Decorative arts of the 20th century,Sc.069,Bust,Head of an Adolescent,,ca. 1885 / 1954,
23,16,0,e.07967.jpg,Collection Egypt,E.07967,Head (sculpture),Tête de captif,Egyptian,,
23.1,4.7,0,ir.0175.jpg,Collection Iran,IR.0175,Hairpin,,Iranian,unknown,
24,0,0,e.07215.jpg,Collection Egypt,E.07215,Head (sculpture),Tête d'homme,Egyptian,-2686 / -2125,
24,16,0,1367.00.jpg,Collection Moulds and casts,1367,Mould,Console: head of a man,,1863 / 1926,
24.5,16,11,e.03074.jpg,Collection Egypt,E.03074,Head (sculpture),Portrait du roi Menkaourê/Mycérinus,Egyptian,-2600 / -2453,
24.8,21,12.3,et.85.2.1.jpg,Collection Oceanea,ET.85.2.1,Head (sculpture),Makemake,,unknown,
25,18.5,0,e.01105.jpg,Collection Egypt,E.01105,Head (sculpture),Tête de statue,Egyptian,-1550 / -1295,
25.5,8.8,5.9,et.85.2.2.jpg,Collection Oceanea,ET.85.2.2,Statuette, Figurine,"Head of a ""moko"" (?)",,1900 / 1985 (uncertain)
26,10.3,4.5,e.03417.jpg,Collection Egypt,E.03417,Fragment,"Fragment of a flagpole, a fan or a fly swatter : head of Hathor",Egyptian,-664 / -332,
26,14.5,0,o.01792.jpg,Collection Near East,O.01792,Head (sculpture),Portrait head,Southern Arabia,-300 / -101,
26,19,18,et.960.jpg,Collection Oceanea,ET.960,Human head,Mokomokai,Polynesia,before 1833,
28,16,0,2500.00.jpg,Collection Moulds and casts,2500,Mould,Head of a sphinx (crown of a stela),,1846 / 1926,
28,20,0,2826.00.jpg,Collection Moulds and casts,2826,Mould,Head of a monster,,1863 / 1926,
28,25,0,2774.00.jpg,Collection Moulds and casts,2774,Mould,Head of a negro,,1863 / 1926,
29,20,0,0111.00.jpg,Collection Moulds and casts,111,Mould,Head of an athlete,,1846 / 1926,
30,18,0,1316.00.jpg,Collection Moulds and casts,1316,Mould,Head of Mary Magdalene,,1863 / 1926,
31,23,0,1432.00.jpg,Collection Moulds and casts,1432,Mould,Head of a gisant,,1863 / 1926,
32,0,0,b000098-001.jpg,Collection National archaeology,B000098-001,Sculpture,Head of a woman (funeral monument),Gallo-Roman,,
32,23,0,1080.00.jpg,Collection Moulds and casts,1080,Mould,Head of a woman,,1863 / 1926,
32,27,0,aam_00095.1_bis.jpg,Collection America,AAM 00095.1 bis,Headdress,"Forehead decoration representing the ""decapitator god""",Mochica (Moche),1 / 600,
33,18,0,2488.00.jpg,Collection Moulds and casts,2488,Mould,Head of Hermes,,1846 / 1926,
33,25,21,aam_02375.jpg,Collection America,AAM 02375,Head (sculpture),,Aztecs,unknown,
34,0,0,1159.00.jpg,Collection Moulds and casts,1159,Mould,Lion's head-shaped door knocker,,1863 / 1926,
34,17,0,0106.00.jpg,Collection Moulds and casts,106,Mould,Head of an athlete,,1846 / 1926,
35,15,0,2490.00.jpg,Collection Moulds and casts,2490,Mould,Head of barbarian,,1846 / 1926,
35,18.5,0,e.07437.jpg,Collection Egypt,E.07437,Head (sculpture),Tête de déesse Sekhmet,Egyptian,-1550 / -1295,
35,21,0,0278.00.jpg,Collection Moulds and casts,278,Mould,Head of ephebe,,1846 / 1926,
35,25,0,1317.00.jpg,Collection Moulds and casts,1317,Mould,Head of Christ,,1863 / 1926,
35,26,0,0745.00.jpg,Collection Moulds and casts,745,Mould,Demon head,,1863 / 1926,
37.5,27,18.5,aam_00049.28.jpg,Collection America,AAM 00049.28,Head (sculpture),,Maya,701 / 800,
38,25,0,2489.00.jpg,Collection Moulds and casts,2489,Mould,Apollo's head,,1846 / 1926,
39,27,0,7560.00.jpg,Collection Moulds and casts,7560,Mould,Head of Milo of Croton,,1863 / 1926,
39,37,13,sc.088.jpg,Collection Decorative arts of the 20th century,Sc.088,Head (sculpture),Head of a Nymph,,ca. 1880 / 1918,
39.4,32,17,et.35.5.90.jpg,Collection Oceanea,ET.35.5.90,Head (sculpture),Makemake,,before 1934,
41,20,0,1542.00.jpg,Collection Moulds and casts,1542,Mould,Head of a young girl,,1863 / 1926,
42,24,0,3072.00.jpg,Collection Moulds and casts,3072,Mould,Head of a child,,1863 / 1926,
42,32,0,2048.00.jpg,Collection Moulds and casts,2048,Mould,Bas-relief: head of a child,,1863 / 1926,
43,20,0,0118.00.jpg,Collection Moulds and casts,118,Mould,"Head of Hermes, so-called Zeus Talleyrand",,1846 / 1926,
44,0,0,e.02401.jpg,Collection Egypt,E.02401,Head (sculpture),Un jeune noble,Egyptian,-1550 / -1289,
44,0,0,2051.00.jpg,Collection Moulds and casts,2051,Mould,High relief: head of a young woman,,1863 / 1926,
44,40,0,2085.00.jpg,Collection Moulds and casts,2085,Mould,Head from the Christ on the Cross,,1863 / 1926,
45,20,0,e.07277.jpg,Collection Egypt,E.07277,Head (sculpture),La reine Hatchepsout,Egyptian,-1473 / -1458,
45,42,0,2197.00.jpg,Collection Moulds and casts,2197,Mould,Lion's head,,1863 / 1926,
46,34,0,2454.00.jpg,Collection Moulds and casts,2454,Mould,"Bas-relief, fragment of the decoration of a theban tomb: head of Anubis",,1846 / 1926,
46,34,0,2460.00.jpg,Collection Moulds and casts,2460,Mould,Bas-relief: head of Horus,,1846 / 1926,
46,34,0,2459.00.jpg,Collection Moulds and casts,2459,Mould,Bas-relief: head of Osiris,,1846 / 1926,
47,32.2,19.9,e.01839.jpg,Collection Egypt,E.01839,Head (sculpture),Tête d'un roi ptolémaïque,Egyptian,-300 / -201 (uncertain),
50,47,0,7565.00.jpg,Collection Moulds and casts,7565,Mould,Head of Diogenes,,1863 / 1926,
51.5,38,25,et.35.5.88.jpg,Collection Oceanea,ET.35.5.88,Head (sculpture),,,1100 / 1700,
52,36,0,5961.jpg,Collection Tapestries and carpets,5961,Tapestry,Griffin's head,,1450 / 1475,
52,49,0,d.2207.00.jpg,Collection Lace,D.2207.00,Fichu (scarf),"Decoration for head, shoulder or arm",,1835 / 1865,
54,18,0,0291.00.jpg,Collection Moulds and casts,291,Mould,Head of an athlete,,1846 / 1926,
55,47,0,0733.00.jpg,Collection Moulds and casts,733,Mould,Detail of a portal: male head and female head,,1863 / 1926,
55,47,0,1935.00.jpg,Collection Moulds and casts,1935,Mould,Frame component: head of cherub,,1863 / 1926,
56,37,0,2315.00.jpg,Collection Moulds and casts,2315,Mould,Head of deacon,,1863 / 1926,
56.5,0,0,etam_00050.5.jpg,Collection America,ETAM 00050.5,Club (weapon),Club ending in a seal's head,Inuit,unknown,
57,34,0,2343.00.jpg,Collection Moulds and casts,2343,Mould,"Head of statue, attributed to Amasis or Nectanebo I",,1846 / 1926,
62,20,0,2588.00.jpg,Collection Moulds and casts,2588,Mould,Head of a ptolemaic king,,1846 / 1926,
62,39,35,tr.1686.jpg,Collection Carriages,TR.1686,Head (sculpture),Tête de cheval,,before 1880,
62,49,0,2346.00.jpg,Collection Moulds and casts,2346,Mould,Capital with the head of the goddess Hathor,,1846 / 1926,
64,14,0,2154.00.jpg,Collection Moulds and casts,2154,Mould,Frieze from a fireplace: head of a man and war attributes,,1863 / 1926,
64,61,0,o.01934.jpg,Collection Near East,O.01934,Relief,Assyrian bas-relief with the head of a genie,Mesopotamia,-883 / -859,
65,40,0,1898.00.jpg,Collection Moulds and casts,1898,Mould,Head of Christ,,1863 / 1926,
66,16,0,2339.00.jpg,Collection Moulds and casts,2339,Mould,Statuette of the goddess Unut with lioness head,,1846 / 1926,
70,55,0,1967.00.jpg,Collection Moulds and casts,1967,Mould,Vase handle: satyr's head,,1863 / 1926,
72,12,0,2675.00.jpg,Collection Moulds and casts,2675,Mould,Table leg with swan head,,1846 / 1926,
72,22,0,1081.00.jpg,Collection Moulds and casts,1081,Mould,Cul-de-lampe (corbel): female head,,1863 / 1926,
74,20,7,2137.00.jpg,Collection Moulds and casts,2137,Mould,Frieze with foliated scrolls and vulture's head,,1863 / 1926,
75,47,0,0049.00.jpg,Collection Moulds and casts,49,Mould,Gargoyle with a lion's head,,1846 / 1926,
77,46,0,0050.00.jpg,Collection Moulds and casts,50,Mould,Gargoyle with a lion's head,,1846 / 1926,
83,62,0,0154.00.jpg,Collection Moulds and casts,154,Mould,Sculpture of the Parthenon pediment: horse's head,,1846 / 1926,
88.5,34,3.5,et.538.jpg,Collection Oceanea,ET.538,Javelin head,,Micronesia,before 1927,
92.8,17,4,et.1705.jpg,Collection Oceanea,ET.1705,Club (weapon),"""Bird-head"" club",,unknown,
94,46,0,2398.00.jpg,Collection Moulds and casts,2398,Mould,Head of a colossal statue of a queen,,1846 / 1926,
98,21,0,et.98.2.jpg,Collection Oceanea,ET.98.2,Club (weapon),"""Bird-head"" club",,unknown,
98.2,19,5,et.98.1.jpg,Collection Oceanea,ET.98.1,Club (weapon),"""Bird-head"" club",,unknown,
100,15.1,9.9,aam_00087.1.83.jpg,Collection America,AAM 00087.1.83,Head (sculpture),Tête anthropomorphe,Totonaca,250 / 600,
101,0,0,et.35.5.337.jpg,Collection Oceanea,ET.35.5.337,Statue,Head ornament from a statue,,1100 / 1680,
103,16,0,et.2009.70.jpg,Collection Oceanea,ET.2009.70,Club (weapon),"""Bird-head"" club",,unknown,
103,18.5,6,et.1694.jpg,Collection Oceanea,ET.1694,Club (weapon),"""Bird-head"" club",,unknown,
106,27,6.2,et.10282.jpg,Collection Oceanea,ET.10282,Club (weapon),"""Bird-head"" club",,unknown,
107,45,0,0005.00.jpg,Collection Moulds and casts,5,Mould,Bas-relief from the palace of Sargon II: Winged deity with eagle's head,,1846 / 1926,
109.2,26,5,et.1704.jpg,Collection Oceanea,ET.1704,Club (weapon),"""Bird-head"" club",,unknown,
131,58,42,b000097-001.jpg,Collection National archaeology,B000097-001,Sculpture,Striking lion and ram's head (funeral monument),Gallo-Roman,,
